<?xml version='1.0' encoding='UTF-8' standalone='no'?>
<!-- Created with Inkscape (http://www.inkscape.org/) -->
<svg xmlns:cc="http://creativecommons.org/ns#" id="svg2" version="1.1" xmlns="http://www.w3.org/2000/svg" xmlns:inkscape="http://www.inkscape.org/namespaces/inkscape" xmlns:rdf="http://www.w3.org/1999/02/22-rdf-syntax-ns#" xmlns:sodipodi="http://sodipodi.sourceforge.net/DTD/sodipodi-0.dtd" inkscape:version="0.92.3 (2405546, 2018-03-11)" width="279.39999mm" sodipodi:docname="USLetter_Landscape_blank.svg" xmlns:dc="http://purl.org/dc/elements/1.1/" height="215.89999mm" viewBox="0 0 279.40001 215.9" xmlns:svg="http://www.w3.org/2000/svg">
 <!-- Working space 10 10 269 205 -->
 <defs id="defs4"/>
 <sodipodi:namedview inkscape:window-x="0" inkscape:showpageshadow="false" inkscape:pageopacity="0.0" inkscape:document-units="mm" bordercolor="#666666" inkscape:zoom="0.64460786" pagecolor="#ffffff" inkscape:guide-bbox="true" inkscape:current-layer="svg2" borderopacity="1.0" showguides="true" inkscape:pageshadow="2" inkscape:window-maximized="1" showgrid="false" inkscape:window-y="26" inkscape:window-height="715" inkscape:cy="470.05322" inkscape:window-width="1366" inkscape:cx="527.99999" id="base" units="mm">
  <sodipodi:guide id="guide4606" inkscape:locked="false" position="196.1368,22.514151" orientation="0,1"/>
  <sodipodi:guide id="guide4608" inkscape:locked="false" position="163.68397,54.764151" orientation="1,0"/>
 </sodipodi:namedview>
 <metadata id="metadata7">
  <rdf:RDF>
   <cc:Work rdf:about="">
    <dc:format>image/svg+xml</dc:format>
    <dc:type rdf:resource="http://purl.org/dc/dcmitype/StillImage"/>
    <dc:title/>
   </cc:Work>
  </rdf:RDF>
 </metadata>
</svg>
